"id","name","age","specie","gender","file_path","created_at","updated_at"
"1","lina","5 months","cat","female","DyGZJM2BnuJFB41o3ZlUO4MkUWOty4P05z84ZdA5.jpg","2021-12-02 19:02:04","2021-12-02 19:02:04"
"2","lola","4 months","cat","female","IvyipQ36Wzfm2XSacSMceIiPdUyC0RfUfHSHCMdZ.jpg","2021-12-02 19:02:29","2021-12-02 19:02:29"
"3","moris","2 years","cat","male","eDq4jhsHu1Blj9zkOnrrXd2jZAnrdrZqVDRSBXz7.jpg","2021-12-02 19:02:55","2021-12-02 19:02:55"
"4","rocky","1 year","cat","male","CNCssc0vOKmeG1KsP7FKIivFVZSgfjMeJ153tyZn.jpg","2021-12-02 19:03:33","2021-12-02 19:03:33"
"5","browny","8 months","dog","male","DTa5OBf0H3dvdyHMGzraVLpg2nmY0V3aRueAnQWE.jpg","2021-12-02 19:03:54","2021-12-02 19:03:54"
"6","tonges","1 year","dog","male","SP2AHQwvp9yLLyWPzpNzO1p7eAof6NYdwK0DYhRd.jpg","2021-12-02 19:04:30","2021-12-02 19:04:30"
"7","Balky","6 months","dog","male","NoxObGH2juGSEAFMjwfWNgjPThzyyvbD0fZxy9cx.jpg","2021-12-02 19:04:54","2021-12-02 19:04:54"
"8","plogy","6 months","hamster","female","fdRX5aZQkafx7YYT5A2mZnSkFDU11TnAugFKkMZZ.jpg","2021-12-02 19:05:38","2021-12-02 19:05:38"
"9","bigy","5 months","hamster","female","FeTyTla1Pqnv2i9w6IsSe2yRvVABjETFVyJVZuCK.jpg","2021-12-02 19:05:59","2021-12-02 19:05:59"
"10","hamtaro","1 year","hamster","male","nMGSs7hwp2FndYmo4SGC5aIe2YVxUpqtT3UsSLES.jpg","2021-12-02 19:06:23","2021-12-02 19:06:23"
"11","miniyes","1 year","hamster","male","PYGNMChXPDkPPscBv66At0uvOnYZEqd9Ry7fJm8C.jpg","2021-12-02 19:06:51","2021-12-02 19:06:51"
"12","sami","1 year","dog","male","KEGapreAq5JtDeKeFaWVABaTvIIMa9zZJplNI2fJ.jpg","2021-12-02 19:08:04","2021-12-02 19:08:04"
"13","gray","8 months","cat","female","q07WObyEU7zdcW0R1ji42nniMkOI7cfQwvuGE0Kk.jpg","2021-12-02 19:08:34","2021-12-02 19:08:34"
"14","whity","8 months","rabbit","female","5GsVUNYkIwHu4DE5mKzAZoUEvtnNp9VP2zUxLggI.jpg","2021-12-02 19:09:50","2021-12-02 19:09:50"
"15","bouby","6 months","rabbit","female","vYxJU4yg0Qdk5XYXKzqJwZaVDsSN51hx8zEDxOrI.jpg","2021-12-02 19:10:12","2021-12-02 19:10:12"
"16","riko","1 year","rabbit","male","A1aullwOHIqaOOAvsGVumKRGLKXJW1pgySSKCGKQ.jpg","2021-12-02 19:10:35","2021-12-02 19:10:35"
"17","neigy","6 months","rabbit","male","HABuxvdHw8S0iciYfYr5ZgUx7Zw3JsIC55GO8eUQ.jpg","2021-12-02 19:11:05","2021-12-02 19:11:05"
"18","leonardo","1 year","turtle","male","OrZf8lv67VuNWAC0CyVxX71RgJsbEz19fIeFo1Z5.jpg","2021-12-02 19:14:19","2021-12-02 19:14:19"
"19","donatello","1 year","turtle","male","p2bJjPyX6JKMkQOrlHXSnaUma9yPO7O17tXrcICg.jpg","2021-12-02 19:14:45","2021-12-02 19:14:45"
"20","snaky","1 year","snake","female","Uw2gnXHsn0eFHhiMzDGm0VF9Ge2SJm57iUjIASw7.jpg","2021-12-02 19:15:49","2021-12-02 19:15:49"
"21","dangy","2 years","snake","female","XtX5eYiD9HksRuJ86JiJBYo9RdAUGlpmlgn2yxCn.jpg","2021-12-02 19:16:11","2021-12-02 19:16:11"
"22","tuti","6 months","bird","female","Bjkhw1z3VH5byyNQJX0ILBUZghyu2axXgkPY8Cgb.jpg","2021-12-02 19:17:40","2021-12-02 19:17:40"
"23","buty","8 months","bird","male","KUVPA9QOaF4tmrH0cHJTtR8h1u6Mf3Y33uxGKL8g.jpg","2021-12-02 19:17:59","2021-12-02 19:17:59"
"24","paparazi","1 year","bird","male","P4BpipK9griAdMdJRBfmbNzZglGkPCtF77mQcVpi.jpg","2021-12-02 19:18:23","2021-12-02 19:18:23"
"25","yellow","8 months","bird","female","ZUc66rF99SWZ4Zt0uvsuJo4mE9ktALpAe4FvW2HI.jpg","2021-12-02 19:18:44","2021-12-02 19:18:44"
"26","milla","1 year","cat","female","ABpD4CNaWofv1raWPMBNLBXgG7xmHMxQGiAi8Cim.jpg","2021-12-05 20:24:02","2021-12-05 20:24:02"
